mean.cov	n.info.snps	adm.estimation.error
20	20	0.054
20	30	0.054
20	40	0.051
20	50	0.05
20	60	0.05
20	70	0.05
20	80	0.05
20	90	0.05
20	100	0.05
20	110	0.05
20	120	0.05
30	20	0.035
30	30	0.038
30	40	0.035
30	50	0.035
30	60	0.033
30	70	0.033
30	80	0.035
30	90	0.033
30	100	0.033
30	110	0.033
30	120	0.033
40	20	0.029
40	30	0.029
40	40	0.028
40	50	0.029
40	60	0.026
40	70	0.028
40	80	0.027
40	90	0.027
40	100	0.028
40	110	0.027
40	120	0.028
50	20	0.029
50	30	0.026
50	40	0.025
50	50	0.024
50	60	0.024
50	70	0.023
50	80	0.023
50	90	0.023
50	100	0.024
50	110	0.023
50	120	0.024
60	20	0.028
60	30	0.025
60	40	0.022
60	50	0.023
60	60	0.021
60	70	0.02
60	80	0.021
60	90	0.02
60	100	0.022
60	110	0.022
60	120	0.022
70	20	0.026
70	30	0.021
70	40	0.023
70	50	0.02
70	60	0.02
70	70	0.02
70	80	0.019
70	90	0.019
70	100	0.019
70	110	0.019
70	120	0.019
80	20	0.025
80	30	0.022
80	40	0.022
80	50	0.02
80	60	0.019
80	70	0.02
80	80	0.018
80	90	0.018
80	100	0.017
80	110	0.018
80	120	0.017
90	20	0.025
90	30	0.02
90	40	0.022
90	50	0.021
90	60	0.018
90	70	0.018
90	80	0.017
90	90	0.018
90	100	0.017
90	110	0.016
90	120	0.017
100	20	0.026
100	30	0.023
100	40	0.019
100	50	0.019
100	60	0.019
100	70	0.017
100	80	0.018
100	90	0.017
100	100	0.018
100	110	0.016
100	120	0.017
110	20	0.023
110	30	0.019
110	40	0.02
110	50	0.019
110	60	0.018
110	70	0.016
110	80	0.017
110	90	0.014
110	100	0.015
110	110	0.016
110	120	0.016
120	20	0.024
120	30	0.023
120	40	0.02
120	50	0.017
120	60	0.017
120	70	0.017
120	80	0.016
120	90	0.015
120	100	0.016
120	110	0.014
120	120	0.014
