Gene.id	chr	start	end	sample	ref.count	alt.count	Variant_Classification
AARS2	6	44268346	44268346	01-28R	181	12	Missense_Mutation
ADCK5	8	145617535	145617549	STID0000000415_B	6	4	Splice_Site_Del
ADRA1D	20	4229090	4229090	STID0000000415_B	43	3	Missense_Mutation
ANO2	12	6030474	6030474	01-28R	64	4	Missense_Mutation
APC	5	112173635	112173635	05-620L	27	30	Nonsense_Mutation
APC	5	112175979	112175979	STID0000000415_B	13	70	Frame_Shift_Del
APOA1BP	1	156561610	156561610	01-28R	17	4	Missense_Mutation
ARMC2	6	109190195	109190195	01-28R	119	17	Missense_Mutation
ATP10D	4	47537630	47537630	05-620L	93	4	Missense_Mutation
AURKB	17	8108640	8108640	01-28R	59	16	Missense_Mutation
BRD1	22	50169711	50169711	01-28R	43	5	Missense_Mutation
C10orf88	10	124711492	124711492	01-28R	27	9	Missense_Mutation
C17orf74	17	7330395	7330395	STID0000000415_B	5	42	Missense_Mutation
C4orf21	4	113540233	113540233	05-620L	105	6	Missense_Mutation
C5orf40	5	156770019	156770019	05-620L	174	4	Missense_Mutation
C9orf43	9	116191493	116191493	01-28R	244	4	Missense_Mutation
CACNA2D4	12	1902923	1902925	STID0000000415_B	15	34	In_Frame_Del
CACNB4	2	152727116	152727116	STID0000000415_B	23	26	Missense_Mutation
CAPNS2	16	55600927	55600927	05-620L	51	32	Missense_Mutation
CD22	19	35823614	35823614	STID0000000415_B	23	75	Missense_Mutation
CDHR2	5	176011668	176011668	STID0000000415_B	202	185	Missense_Mutation
CEACAM4	19	42132241	42132243	05-620L	104	46	In_Frame_Del
CELF3	1	151678760	151678760	STID0000000415_B	9	10	Missense_Mutation
CELF6	15	72580709	72580709	05-620L	196	4	Nonsense_Mutation
CHRNA9	4	40337864	40337864	05-620L	46	29	Missense_Mutation
CLEC4D	12	8672916	8672916	01-28R	98	27	Missense_Mutation
CNKSR2	X	21545083	21545083	05-620L	199	4	Nonsense_Mutation
COL27A1	9	116931682	116931682	05-620L	75	57	Missense_Mutation
COQ9	16	57486804	57486804	05-620L	123	4	Missense_Mutation
CYLC1	X	83129394	83129394	STID0000000415_B	40	3	Nonsense_Mutation
DEPDC1	1	68943581	68943581	01-28R	325	4	Missense_Mutation
DEPDC1	1	68943565	68943565	01-28R	321	5	Missense_Mutation
DLGAP5	14	55615140	55615140	STID0000000415_B	112	78	Nonsense_Mutation
DNAH17	17	76503568	76503568	STID0000000415_B	46	28	Missense_Mutation
DNAJC3	13	96443212	96443212	01-28R	94	70	Missense_Mutation
ECE2	3	184009197	184009197	05-620L	105	14	Missense_Mutation
EDEM3	1	184671976	184671976	01-28R	69	40	Missense_Mutation
EGF	4	110834588	110834588	05-620L	29	10	Missense_Mutation
EHMT1	9	140674089	140674089	01-28R	56	16	Missense_Mutation
FAM120A	9	96261097	96261097	05-620L	185	4	Missense_Mutation
FAM179A	2	29222183	29222183	STID0000000415_B	29	27	Missense_Mutation
FAM59A	18	29867851	29867851	05-620L	99	10	Missense_Mutation
FAT4	4	126412295	126412295	01-28R	108	10	Missense_Mutation
FAT4	4	126238838	126238838	05-620L	31	4	Missense_Mutation
FGF3	11	69625348	69625348	01-28R	74	11	Missense_Mutation
FOXA1	14	38061231	38061231	05-620L	19	16	Missense_Mutation
FZD4	11	86662280	86662280	05-620L	62	33	Missense_Mutation
GABBR1	6	29598417	29598417	STID0000000415_B	72	65	Missense_Mutation
GABPA	21	27136590	27136590	01-28R	67	4	Missense_Mutation
GBA3	4	22750541	22750541	01-28R	5	4	Missense_Mutation
GCNT1	9	79118255	79118255	01-28R	81	16	Missense_Mutation
GLB1L2	11	134234251	134234251	05-620L	260	8	Missense_Mutation
GLT25D1	19	17692167	17692167	01-28R	97	4	Missense_Mutation
GOLPH3	5	32126452	32126452	STID0000000415_B	90	65	Missense_Mutation
GPR39	2	133402940	133402940	STID0000000415_B	149	8	Missense_Mutation
GRIN2D	19	48946485	48946485	05-620L	3	2	Missense_Mutation
GUF1	4	44683194	44683194	01-28R	419	8	Missense_Mutation
HELZ	17	65147207	65147207	01-28R	100	28	Missense_Mutation
HINT2	9	35813651	35813651	01-28R	129	4	Missense_Mutation
HPSE	4	84216580	84216580	05-620L	69	34	Missense_Mutation
HSPA6	1	161494973	161494973	05-620L	40	22	Missense_Mutation
HYDIN	16	70884554	70884554	STID0000000415_B	9	21	Missense_Mutation
ITPR1	3	4687155	4687155	STID0000000415_B	25	20	Splice_Site_SNP
KCNN1	19	18085076	18085076	01-28R	54	9	Missense_Mutation
KDELR3	22	38877322	38877325	STID0000000415_B	202	122	Frame_Shift_Del
KIAA1632	18	43481081	43481081	05-620L	59	39	Missense_Mutation
KIAA2026	9	6007400	6007400	STID0000000415_B	0	28	Missense_Mutation
KIF4A	X	69563608	69563608	01-28R	24	3	Missense_Mutation
KRT8	12	53298675	53298675	05-620L	29	3	Missense_Mutation
KRTAP9-4	17	39406045	39406045	05-620L	115	3	Missense_Mutation
MAP1A	15	43813696	43813696	01-28R	126	5	Missense_Mutation
MAPKAPK3	3	50677908	50677908	05-620L	318	35	Missense_Mutation
MBP	18	74817189	74817189	01-28R	106	18	Nonsense_Mutation
MCOLN3	1	85498419	85498419	01-28R	228	43	Missense_Mutation
MED30	8	118533203	118533203	05-620L	37	5	Missense_Mutation
METTL6	3	15467952	15467952	05-620L	63	91	Missense_Mutation
MFHAS1	8	8747649	8747649	05-620L	89	8	Missense_Mutation
MMP21	10	127461307	127461307	01-28R	27	3	Missense_Mutation
MUC2	11	1081807	1081807	01-28R	61	11	Missense_Mutation
MYCN	2	16082482	16082482	STID0000000415_B	12	25	Missense_Mutation
MYO6	6	76554624	76554624	STID0000000415_B	114	91	Missense_Mutation
NBAS	2	15679348	15679348	05-620L	45	19	Missense_Mutation
NCAPH	2	97030219	97030219	05-620L	20	10	Missense_Mutation
NCOR1	17	16012098	16012098	05-620L	59	36	Splice_Site_SNP
NDST4	4	115891689	115891689	01-28R	66	5	Missense_Mutation
NEU4	2	242755734	242755734	STID0000000415_B	74	63	Missense_Mutation
NLRP10	11	7982839	7982839	STID0000000415_B	200	22	Missense_Mutation
NVL	1	224482029	224482029	STID0000000415_B	82	65	Missense_Mutation
NWD1	19	16910815	16910815	01-28R	77	19	Missense_Mutation
NWD1	19	16861161	16861161	05-620L	27	15	Missense_Mutation
OR10A6	11	7949332	7949332	01-28R	110	4	Missense_Mutation
OR4C12	11	50003602	50003602	05-620L	158	81	Missense_Mutation
OR51G2	11	4935980	4935980	01-28R	39	22	Missense_Mutation
P2RX2	12	133198274	133198274	05-620L	47	29	Missense_Mutation
PAK2	3	196509583	196509583	01-28R	227	4	Missense_Mutation
PAPPA	9	119106844	119106844	05-620L	166	13	Missense_Mutation
PAX1	20	21687399	21687399	05-620L	103	42	Missense_Mutation
PCDHB2	5	140476395	140476395	05-620L	222	4	Missense_Mutation
PCDHB7	5	140554692	140554692	01-28R	192	46	Missense_Mutation
PCDP1	2	120383174	120383174	05-620L	21	6	Nonsense_Mutation
PLCL1	2	198950679	198950679	STID0000000415_B	107	79	Missense_Mutation
PLEKHH2	2	43989458	43989458	05-620L	54	38	Missense_Mutation
PLLP	16	57318365	57318365	STID0000000415_B	1	3	Missense_Mutation
PRDM9	5	23518026	23518026	05-620L	23	77	Missense_Mutation
PSENEN	19	36237609	36237609	STID0000000415_B	108	36	Missense_Mutation
PXDN	2	1642674	1642674	05-620L	96	4	Missense_Mutation
RBM6	3	50095997	50095997	STID0000000415_B	120	84	Splice_Site_SNP
RNF175	4	154631633	154631633	01-28R	21	7	Missense_Mutation
RRN3	16	15188060	15188060	STID0000000415_B	22	3	Missense_Mutation
RRN3	16	15188066	15188066	STID0000000415_B	20	3	Missense_Mutation
SALL1	16	51175856	51175856	01-28R	145	3	Missense_Mutation
SCARF2	22	20780164	20780164	STID0000000415_B	34	25	Missense_Mutation
SHANK1	19	51165317	51165317	01-28R	125	16	Missense_Mutation
SIGLEC12	19	51995034	51995034	01-28R	50	42	Missense_Mutation
SLC25A10	17	79682059	79682059	01-28R	36	7	Missense_Mutation
SLC9A11	1	173516905	173516905	STID0000000415_B	71	53	Missense_Mutation
SLC9A3	5	492051	492051	05-620L	17	6	Missense_Mutation
SLIT3	5	168139331	168139331	01-28R	99	45	Missense_Mutation
SMAD1	4	146436043	146436043	01-28R	129	10	Missense_Mutation
SMAD2	18	45371774	45371774	STID0000000415_B	119	5	Missense_Mutation
SNX29	16	12497336	12497336	01-28R	28	3	Missense_Mutation
SPTA1	1	158596766	158596766	01-28R	230	8	Missense_Mutation
SV2C	5	75587134	75587134	05-620L	38	3	Missense_Mutation
TATDN1	8	125520877	125520877	05-620L	35	5	Missense_Mutation
TATDN1	8	125520861	125520861	05-620L	38	6	Nonsense_Mutation
TBRG1	11	124500302	124500302	01-28R	269	8	Missense_Mutation
TBX18	6	85446873	85446873	STID0000000415_B	125	72	Missense_Mutation
TCERG1	5	145882960	145882960	STID0000000415_B	7	29	Missense_Mutation
TGM2	20	36767889	36767889	05-620L	112	4	Missense_Mutation
TGM7	15	43572121	43572121	STID0000000415_B	138	107	Missense_Mutation
TMEM11	17	21101698	21101698	01-28R	204	28	Missense_Mutation
TMEM225	11	123756122	123756122	STID0000000415_B	57	41	Missense_Mutation
TP53	17	7577529	7577529	STID0000000415_B	17	38	Missense_Mutation
TRPM4	19	49671630	49671630	STID0000000415_B	105	38	Missense_Mutation
TSHZ2	20	51871759	51871759	01-28R	195	4	Missense_Mutation
TTN	2	179457604	179457604	STID0000000415_B	455	22	Missense_Mutation
TUBA3C	13	19751230	19751230	STID0000000415_B	42	114	Missense_Mutation
UNC13C	15	54914528	54914528	05-620L	62	43	Missense_Mutation
USP33	1	78187787	78187787	01-28R	119	6	Missense_Mutation
VAMP1	12	6575058	6575058	01-28R	73	4	Nonsense_Mutation
VN1R5	1	247419797	247419797	01-28R	109	68	Missense_Mutation
VPS13D	1	12343206	12343206	01-28R	189	43	Missense_Mutation
WDR12	2	203762088	203762088	01-28R	82	12	Missense_Mutation
WHAMM	15	83495234	83495234	01-28R	177	3	Missense_Mutation
WWP2	16	69971127	69971127	01-28R	84	13	Missense_Mutation
YTHDC1	4	69204067	69204067	STID0000000415_B	22	19	Frame_Shift_Del
ZBTB44	11	130130859	130130859	STID0000000415_B	179	108	Missense_Mutation
ZDHHC20	13	21965938	21965938	05-620L	28	9	Missense_Mutation
